{
  "main": {
    "id": "d582af49ff2208e9",
    "type": "split",
    "children": [
      {
        "id": "9fd078654a9938ef",
        "type": "tabs",
        "children": [
          {
            "id": "ece6fcbc41c5fc5b",
            "type": "leaf",
            "state": {
              "type": "markdown",
              "state": {
                "file": "Tutorial/Obsidian Starter Tutorial/100 Basic Markdown/Tutorial - 101 - Basic Markdown.md",
                "mode": "source",
                "source": true
              }
            }
          }
        ]
      },
      {
        "id": "b6f786ebac342dcd",
        "type": "tabs",
        "children": [
          {
            "id": "d22fa9b51c1dbe2e",
            "type": "leaf",
            "state": {
              "type": "markdown",
              "state": {
                "file": "Tutorial/Obsidian Starter Tutorial/100 Basic Markdown/Tutorial - 101 - Basic Markdown.md",
                "mode": "preview",
                "source": true
              }
            }
          }
        ]
      }
    ],
    "direction": "vertical"
  },
  "left": {
    "id": "4ce1f3ecf45cbb3a",
    "type": "split",
    "children": [
      {
        "id": "d33073c3657193df",
        "type": "tabs",
        "dimension": 34.39655172413793,
        "children": [
          {
            "id": "b0df06cb5f26a526",
            "type": "leaf",
            "state": {
              "type": "file-explorer",
              "state": {
                "sortOrder": "byCreatedTime"
              }
            }
          },
          {
            "id": "fcfebaa2337ca423",
            "type": "leaf",
            "state": {
              "type": "search",
              "state": {
                "query": "tag:#Tags",
                "matchingCase": false,
                "explainSearch": false,
                "collapseAll": false,
                "extraContext": false,
                "sortOrder": "alphabetical"
              }
            }
          },
          {
            "id": "fc73ce41794dfba6",
            "type": "leaf",
            "state": {
              "type": "starred",
              "state": {}
            }
          }
        ]
      },
      {
        "id": "37944bbcbd7f9d2b",
        "type": "tabs",
        "dimension": 65.60344827586206,
        "children": [
          {
            "id": "41dabd0778bc92b7",
            "type": "leaf",
            "state": {
              "type": "outline",
              "state": {
                "file": "Tutorial/Obsidian Starter Tutorial/100 Basic Markdown/Tutorial - 101 - Basic Markdown.md"
              }
            }
          }
        ]
      }
    ],
    "direction": "horizontal",
    "width": 309.5069465637207
  },
  "right": {
    "id": "7ffe37ac11484a71",
    "type": "split",
    "children": [
      {
        "id": "7e476160d4b12606",
        "type": "tabs",
        "children": [
          {
            "id": "58e2012213bf9b10",
            "type": "leaf",
            "state": {
              "type": "backlink",
              "state": {
                "file": "Tutorial/Obsidian Starter Tutorial/100 Basic Markdown/Tutorial - 101 - Basic Markdown.md",
                "collapseAll": false,
                "extraContext": false,
                "sortOrder": "alphabetical",
                "showSearch": false,
                "searchQuery": "",
                "backlinkCollapsed": false,
                "unlinkedCollapsed": true
              }
            }
          },
          {
            "id": "420aafbdd535ed40",
            "type": "leaf",
            "state": {
              "type": "outgoing-link",
              "state": {
                "file": "Tutorial/Obsidian Starter Tutorial/100 Basic Markdown/Tutorial - 101 - Basic Markdown.md",
                "linksCollapsed": false,
                "unlinkedCollapsed": true
              }
            }
          },
          {
            "id": "93a9729a231e9315",
            "type": "leaf",
            "state": {
              "type": "tag",
              "state": {
                "sortOrder": "frequency",
                "useHierarchy": true
              }
            }
          }
        ],
        "currentTab": 2
      }
    ],
    "direction": "horizontal",
    "width": 200,
    "collapsed": true
  },
  "left-ribbon": {
    "hiddenItems": {
      "switcher:Open quick switcher": false,
      "graph:Open graph view": false,
      "canvas:Create new canvas": false,
      "daily-notes:Open today's daily note": false,
      "templates:Insert template": false,
      "command-palette:Open command palette": false,
      "markdown-importer:Open format converter": false,
      "workspaces:Manage workspace layouts": false,
      "homepage:Open homepage": false,
      "table-editor-obsidian:Advanced Tables Toolbar": false,
      "open-vscode:VSCode": false
    }
  },
  "active": "ece6fcbc41c5fc5b",
  "lastOpenFiles": [
    "Home.md",
    "README.md",
    "Tutorial/Obsidian Starter Tutorial/200 - Obsidian Basics/Tutorial 201 - Obsidian Basics.md",
    "Tutorial/Obsidian Starter Tutorial/100 Basic Markdown/Tutorial - 101 - Basic Markdown.md",
    "Tutorial/Obsidian Starter Tutorial",
    "Tutorial/Obsidian Starter Tutorial/100 Basic Markdown/Tutorial -  101 - Basic Markdown - Link Here File.md",
    "Tutorial - 01 - Markdown.md",
    "assets/Pasted image 20230305105034.png",
    "assets/SettingsSideBySide.mov",
    "assets/Recording 2023-03-05 120457.mp4",
    "assets/Pasted image 20230305115413.png",
    "assets/Pasted image 20230305115343.png",
    "assets/Pasted image 20230305115248.png",
    "assets/Pasted image 20230305115048.png",
    "assets/Pasted image 20230305114628.png",
    "assets/Pasted image 20230305114306.png",
    "assets/Pasted image 20230305114223.png",
    "assets/Pasted image 20230305114157.png",
    "assets/Pasted image 20230305114049.png",
    "Tutorial/Obsidian Starter Tutorial/200 - Obsidian Basics",
    "Tutorial/Obsidian Starter Tutorial/100 Basic Markdown",
    "Tutorial",
    "assets",
    "assets/images",
    "().md"
  ]
}